Seed: 11494
[0m[[0minfo[0m] [0mLoading project definition from /home/kreiz/Documents/ciencias/hoc-tsp/project[0m
[0m[[0minfo[0m] [0mSet current project to tcp-simulated-annealing (in build file:/home/kreiz/Documents/ciencias/hoc-tsp/)[0m
[0m[[0minfo[0m] [0mRunning main --input cities --output out209.txt 11494 8 -b[0m
[0m[[0minfo[0m] [0m06:07:41.985 [main] INFO slick - Loading database 'db/hoc-tsp.db'[0m
[0m[[0minfo[0m] [0m06:07:42.505 [main] INFO slick - Done.[0m
[0m[[0minfo[0m] [0m06:07:42.508 [main] INFO hoc-tsp - 8392 connections, 277 cities[0m
[0m[[0minfo[0m] [0m06:07:42.509 [main] INFO hoc-tsp - Problem for 78 cities[0m
[0m[[0minfo[0m] [0m06:07:42.578 [main] INFO hoc-tsp - Map for solution: 78 nodes, 710 connections[0m
[0m[[0minfo[0m] [0m06:07:42.609 [main] DEBUG hoc-tsp:TSPCommon - 4979178.93 is the max distance between two cities[0m
[0m[[0minfo[0m] [0m06:07:42.610 [main] INFO hoc-tsp - Calculating temperature..[0m
[0m[[0minfo[0m] [0m06:07:42.901 [main] INFO hoc-tsp - Initial temperature: 8.0[0m
[0m[[0minfo[0m] [0m06:07:42.902 [main] INFO hoc-tsp - Initial solution: 31, 216, 160, 220, 16, 274, 215, 185, 75, 133, 122, 159, 101, 107, 66, 135, 23, 191, 39, 80, 266, 147, 58, 244, 119, 250, 190, 178, 94, 167, 117, 198, 146, 203, 48, 65, 62, 254, 276, 241, 95, 29, 235, 176, 84, 209, 150, 12, 179, 9, 238, 166, 233, 213, 194, 56, 143, 30, 232, 224, 200, 92, 52, 22, 144, 158, 264, 207, 227, 86, 248, 70, 221, 1, 188, 90, 5, 186[0m
[0m[[0minfo[0m] [0m31 and 216 aren't connected[0m
[0m[[0minfo[0m] [0m06:07:42.904 [main] INFO hoc-tsp - Factible: false[0m
[0m[[0minfo[0m] [0mCurrent best: 6.356971749118922, temperature: 5.2488[0m
[0m[[0minfo[0m] [0mCurrent best: 6.2490014790033275, temperature: 3.8264[0m
[0m[[0minfo[0m] [0mCurrent best: 6.2490014790033275, temperature: 2.5105[0m
[0m[[0minfo[0m] [0mCurrent best: 5.879575300742444, temperature: 2.0335[0m
[0m[[0minfo[0m] [0mCurrent best: 5.879575300742444, temperature: 2.0335[0m
[0m[[0minfo[0m] [0mCurrent best: 5.879575300742444, temperature: 1.6471[0m
[0m[[0minfo[0m] [0mCurrent best: 5.879575300742444, temperature: 1.2008[0m
[0m[[0minfo[0m] [0mCurrent best: 5.879575300742444, temperature: 1.2008[0m
[0m[[0minfo[0m] [0mCurrent best: 5.879575300742444, temperature: 1.0807[0m
[0m[[0minfo[0m] [0mCurrent best: 5.660389229399184, temperature: 0.6381[0m
[0m[[0minfo[0m] [0mCurrent best: 5.660389229399184, temperature: 0.4652[0m
[0m[[0minfo[0m] [0mCurrent best: 5.243605008112523, temperature: 0.2225[0m
[0m[[0minfo[0m] [0mCurrent best: 5.174159341130199, temperature: 0.1622[0m
[0m[[0minfo[0m] [0mCurrent best: 5.174159341130199, temperature: 0.1460[0m
[0m[[0minfo[0m] [0mCurrent best: 5.174159341130199, temperature: 0.1314[0m
[0m[[0minfo[0m] [0mCurrent best: 0.9856533015632306, temperature: 0.0958[0m
[0m[[0minfo[0m] [0mCurrent best: 0.630076155219358, temperature: 0.0160[0m
[0m[[0minfo[0m] [0mCurrent best: 0.25518373471965294, temperature: 0.0027[0m
[0m[[0minfo[0m] [0mCurrent best: 0.203894619034902, temperature: 0.0003[0m
[0m[[0minfo[0m] [0m06:10:42.051 [main] DEBUG hoc-tsp: Batch - Can't complete batch, returning current state, accepted: 127.0[0m
[0m[[0minfo[0m] [0m06:10:52.287 [main] DEBUG hoc-tsp: Batch - Can't complete batch, returning current state, accepted: 148.0[0m
[0m[[0minfo[0m] [0m06:11:02.479 [main] DEBUG hoc-tsp: Batch - Can't complete batch, returning current state, accepted: 155.0[0m
[0m[[0minfo[0m] [0m06:11:12.231 [main] DEBUG hoc-tsp: Batch - Can't complete batch, returning current state, accepted: 120.0[0m
[0m[[0minfo[0m] [0m06:11:22.185 [main] DEBUG hoc-tsp: Batch - Can't complete batch, returning current state, accepted: 132.0[0m
[0m[[0minfo[0m] [0m06:11:31.759 [main] DEBUG hoc-tsp: Batch - Can't complete batch, returning current state, accepted: 136.0[0m
[0m[[0minfo[0m] [0m06:11:41.639 [main] DEBUG hoc-tsp: Batch - Can't complete batch, returning current state, accepted: 116.0[0m
[0m[[0minfo[0m] [0m06:11:51.965 [main] DEBUG hoc-tsp: Batch - Can't complete batch, returning current state, accepted: 101.0[0m
[0m[[0minfo[0m] [0m06:12:02.312 [main] DEBUG hoc-tsp: Batch - Can't complete batch, returning current state, accepted: 116.0[0m
[0m[[0minfo[0m] [0m06:12:13.012 [main] DEBUG hoc-tsp: Batch - Can't complete batch, returning current state, accepted: 111.0[0m
[0m[[0minfo[0m] [0mElapsed time: 270107ms[0m
[0m[[0minfo[0m] [0m06:12:13.013 [main] INFO hoc-tsp - Result: 1, 188, 95, 144, 233, 9, 80, 250, 147, 146, 276, 274, 58, 224, 158, 31, 213, 22, 185, 29, 266, 133, 248, 23, 62, 90, 215, 179, 198, 92, 220, 70, 235, 244, 238, 12, 48, 264, 191, 86, 166, 207, 101, 200, 167, 160, 178, 194, 39, 117, 65, 30, 56, 94, 119, 135, 150, 221, 107, 232, 186, 190, 241, 16, 75, 52, 203, 209, 122, 176, 143, 5, 216, 159, 66, 84, 254, 227[0m
[0m[[0minfo[0m] [0m06:12:13.013 [main] INFO hoc-tsp - Cost: 0.20381085030789234[0m
[0m[[0minfo[0m] [0m06:12:13.015 [main] INFO hoc-tsp - Factible: true[0m
[0m[[32msuccess[0m] [0mTotal time: 272 s, completed Oct 23, 2016 6:12:13 AM[0m
